﻿Tag Name,Address,Data Type,Respect Data Type,Client Access,Scan Rate,Scaling,Raw Low,Raw High,Scaled Low,Scaled High,Scaled Data Type,Clamp Low,Clamp High,Eng Units,Description,Negate Value
"NCE-C13_BHSLifeSign","DB1.W38",Word,1,R/W,100,,,,,,,,,,"",
"NCE-C13_ConveyorForward","DB1.W35",Word,1,R/W,100,,,,,,,,,,"",
"NCE-C13_ConveyorInject","DB1.W31",Word,1,R/W,100,,,,,,,,,,"",
"NCE-C13_ConveyorReverse","DB1.W36",Word,1,R/W,100,,,,,,,,,,"",
"NCE-C13_Error","DB1.W37",Word,1,R/W,100,,,,,,,,,,"",
"NCE-C13_Info","DB1.W32",Word,1,R/W,100,,,,,,,,,,"",
"NCE-C13_PLCLifeSign","DB1.W34",Word,1,R/W,100,,,,,,,,,,"",
"NCE-C13_Status","DB1.W33",Word,1,R/W,100,,,,,,,,,,"",
"NCE-C14_BHSLifeSign","DB1.W48",Word,1,R/W,100,,,,,,,,,,"",
"NCE-C14_ConveyorForward","DB1.W45",Word,1,R/W,100,,,,,,,,,,"",
"NCE-C14_ConveyorInject","DB1.W41",Word,1,R/W,100,,,,,,,,,,"",
"NCE-C14_ConveyorReverse","DB1.W46",Word,1,R/W,100,,,,,,,,,,"",
"NCE-C14_Error","DB1.W47",Word,1,R/W,100,,,,,,,,,,"",
"NCE-C14_Info","DB1.W42",Word,1,R/W,100,,,,,,,,,,"",
"NCE-C14_PLCLifeSign","DB1.W44",Word,1,R/W,100,,,,,,,,,,"",
"NCE-C14_Status","DB1.W43",Word,1,R/W,100,,,,,,,,,,"",
"NCE-C15_BHSLifeSign","DB1.W58",Word,1,R/W,100,,,,,,,,,,"",
"NCE-C15_ConveyorForward","DB1.W55",Word,1,R/W,100,,,,,,,,,,"",
"NCE-C15_ConveyorInject","DB1.W51",Word,1,R/W,100,,,,,,,,,,"",
"NCE-C15_ConveyorReverse","DB1.W56",Word,1,R/W,100,,,,,,,,,,"",
"NCE-C15_Error","DB1.W57",Word,1,R/W,100,,,,,,,,,,"",
"NCE-C15_Info","DB1.W52",Word,1,R/W,100,,,,,,,,,,"",
"NCE-C15_PLCLifeSign","DB1.W54",Word,1,R/W,100,,,,,,,,,,"",
"NCE-C15_Status","DB1.W53",Word,1,R/W,100,,,,,,,,,,"",
"NCE-C16_BHSLifeSign","DB1.W8",Word,1,R/W,100,,,,,,,,,,"",
"NCE-C16_ConveyorForward","DB1.W5",Word,1,R/W,100,,,,,,,,,,"",
"NCE-C16_ConveyorInject","DB1.W1",Word,1,R/W,100,,,,,,,,,,"",
"NCE-C16_ConveyorReverse","DB1.W6",Word,1,R/W,100,,,,,,,,,,"",
"NCE-C16_Error","DB1.W7",Word,1,R/W,100,,,,,,,,,,"",
"NCE-C16_Info","DB1.W2",Word,1,R/W,100,,,,,,,,,,"",
"NCE-C16_PLCLifeSign","DB1.W4",Word,1,R/W,100,,,,,,,,,,"",
"NCE-C16_Status","DB1.W3",Word,1,R/W,100,,,,,,,,,,"",
"NCE-C17_BHSLifeSign","DB1.W178",Word,1,R/W,100,,,,,,,,,,"",
"NCE-C17_ConveyorForward","DB1.W1745",Word,1,R/W,100,,,,,,,,,,"",
"NCE-C17_ConveyorInject","DB1.W171",Word,1,R/W,100,,,,,,,,,,"",
"NCE-C17_ConveyorReverse","DB1.W176",Word,1,R/W,100,,,,,,,,,,"",
"NCE-C17_Error","DB1.W177",Word,1,R/W,100,,,,,,,,,,"",
"NCE-C17_Info","DB1.W172",Word,1,R/W,100,,,,,,,,,,"",
"NCE-C17_PLCLifeSign","DB1.W174",Word,1,R/W,100,,,,,,,,,,"",
"NCE-C17_Status","DB1.W173",Word,1,R/W,100,,,,,,,,,,"",

"CASA-C01_BHSLifeSign","DB1.W138",Word,1,R/W,100,,,,,,,,,,"",
"CASA-C01_ConveyorForward","DB1.W135",Word,1,R/W,100,,,,,,,,,,"",
"CASA-C01_ConveyorInject","DB1.W131",Word,1,R/W,100,,,,,,,,,,"",
"CASA-C01_ConveyorReverse","DB1.W136",Word,1,R/W,100,,,,,,,,,,"",
"CASA-C01_Error","DB1.W137",Word,1,R/W,100,,,,,,,,,,"",
"CASA-C01_Info","DB1.W132",Word,1,R/W,100,,,,,,,,,,"",
"CASA-C01_PLCLifeSign","DB1.W134",Word,1,R/W,100,,,,,,,,,,"",
"CASA-C01_Status","DB1.W133",Word,1,R/W,100,,,,,,,,,,"",
"CASA-C02_BHSLifeSign","DB1.W148",Word,1,R/W,100,,,,,,,,,,"",
"CASA-C02_ConveyorForward","DB1.W145",Word,1,R/W,100,,,,,,,,,,"",
"CASA-C02_ConveyorInject","DB1.W141",Word,1,R/W,100,,,,,,,,,,"",
"CASA-C02_ConveyorReverse","DB1.W146",Word,1,R/W,100,,,,,,,,,,"",
"CASA-C02_Error","DB1.W147",Word,1,R/W,100,,,,,,,,,,"",
"CASA-C02_Info","DB1.W142",Word,1,R/W,100,,,,,,,,,,"",
"CASA-C02_PLCLifeSign","DB1.W144",Word,1,R/W,100,,,,,,,,,,"",
"CASA-C02_Status","DB1.W143",Word,1,R/W,100,,,,,,,,,,"",
"CASA-C03_BHSLifeSign","DB1.W138",Word,1,R/W,100,,,,,,,,,,"",
"CASA-C03_ConveyorForward","DB1.W135",Word,1,R/W,100,,,,,,,,,,"",
"CASA-C03_ConveyorInject","DB1.W131",Word,1,R/W,100,,,,,,,,,,"",
"CASA-C03_ConveyorReverse","DB1.W136",Word,1,R/W,100,,,,,,,,,,"",
"CASA-C03_Error","DB1.W137",Word,1,R/W,100,,,,,,,,,,"",
"CASA-C03_Info","DB1.W132",Word,1,R/W,100,,,,,,,,,,"",
"CASA-C03_PLCLifeSign","DB1.W134",Word,1,R/W,100,,,,,,,,,,"",
"CASA-C03_Status","DB1.W133",Word,1,R/W,100,,,,,,,,,,"",
"CASA-C04_BHSLifeSign","DB1.W148",Word,1,R/W,100,,,,,,,,,,"",
"CASA-C04_ConveyorForward","DB1.W145",Word,1,R/W,100,,,,,,,,,,"",
"CASA-C04_ConveyorInject","DB1.W141",Word,1,R/W,100,,,,,,,,,,"",
"CASA-C04_ConveyorReverse","DB1.W146",Word,1,R/W,100,,,,,,,,,,"",
"CASA-C04_Error","DB1.W147",Word,1,R/W,100,,,,,,,,,,"",
"CASA-C04_Info","DB1.W142",Word,1,R/W,100,,,,,,,,,,"",
"CASA-C04_PLCLifeSign","DB1.W144",Word,1,R/W,100,,,,,,,,,,"",
"CASA-C04_Status","DB1.W143",Word,1,R/W,100,,,,,,,,,,"",
"CASA-C05_BHSLifeSign","DB1.W158",Word,1,R/W,100,,,,,,,,,,"",
"CASA-C05_ConveyorForward","DB1.W155",Word,1,R/W,100,,,,,,,,,,"",
"CASA-C05_ConveyorInject","DB1.W151",Word,1,R/W,100,,,,,,,,,,"",
"CASA-C05_ConveyorReverse","DB1.W156",Word,1,R/W,100,,,,,,,,,,"",
"CASA-C05_Error","DB1.W157",Word,1,R/W,100,,,,,,,,,,"",
"CASA-C05_Info","DB1.W152",Word,1,R/W,100,,,,,,,,,,"",
"CASA-C05_PLCLifeSign","DB1.W154",Word,1,R/W,100,,,,,,,,,,"",
"CASA-C05_Status","DB1.W153",Word,1,R/W,100,,,,,,,,,,"",
"CASA-C06_BHSLifeSign","DB1.W18",Word,1,R/W,100,,,,,,,,,,"",
"CASA-C06_ConveyorForward","DB1.W15",Word,1,R/W,100,,,,,,,,,,"",
"CASA-C06_ConveyorInject","DB1.W11",Word,1,R/W,100,,,,,,,,,,"",
"CASA-C06_ConveyorReverse","DB1.W16",Word,1,R/W,100,,,,,,,,,,"",
"CASA-C06_Error","DB1.W17",Word,1,R/W,100,,,,,,,,,,"",
"CASA-C06_Info","DB1.W12",Word,1,R/W,100,,,,,,,,,,"",
"CASA-C06_PLCLifeSign","DB1.W14",Word,1,R/W,100,,,,,,,,,,"",
"CASA-C06_Status","DB1.W13",Word,1,R/W,100,,,,,,,,,,"",
"CASA-C07_BHSLifeSign","DB1.W1178",Word,1,R/W,100,,,,,,,,,,"",
"CASA-C07_ConveyorForward","DB1.W11745",Word,1,R/W,100,,,,,,,,,,"",
"CASA-C07_ConveyorInject","DB1.W1171",Word,1,R/W,100,,,,,,,,,,"",
"CASA-C07_ConveyorReverse","DB1.W1176",Word,1,R/W,100,,,,,,,,,,"",
"CASA-C07_Error","DB1.W1177",Word,1,R/W,100,,,,,,,,,,"",
"CASA-C07_Info","DB1.W1172",Word,1,R/W,100,,,,,,,,,,"",
"CASA-C07_PLCLifeSign","DB1.W1174",Word,1,R/W,100,,,,,,,,,,"",
"CASA-C07_Status","DB1.W1173",Word,1,R/W,100,,,,,,,,,,"",

"IER_SBD_001_BHSLifeSign","DB1.W1238",Word,1,R/W,100,,,,,,,,,,"",
"IER_SBD_001_ConveyorForward","DB1.W235",Word,1,R/W,100,,,,,,,,,,"",
"IER_SBD_001_ConveyorInject","DB1.W1231",Word,1,R/W,100,,,,,,,,,,"",
"IER_SBD_001_ConveyorReverse","DB1.W1236",Word,1,R/W,100,,,,,,,,,,"",
"IER_SBD_001_Error","DB1.W1237",Word,1,R/W,100,,,,,,,,,,"",
"IER_SBD_001_Info","DB1.W1232",Word,1,R/W,100,,,,,,,,,,"",
"IER_SBD_001_PLCLifeSign","DB1.W1234",Word,1,R/W,100,,,,,,,,,,"",
"IER_SBD_001_Status","DB1.W1233",Word,1,R/W,100,,,,,,,,,,"",
"IER_SBD_002_BHSLifeSign","DB1.W1248",Word,1,R/W,100,,,,,,,,,,"",
"IER_SBD_002_ConveyorForward","DB1.W1245",Word,1,R/W,100,,,,,,,,,,"",
"IER_SBD_002_ConveyorInject","DB1.W1241",Word,1,R/W,100,,,,,,,,,,"",
"IER_SBD_002_ConveyorReverse","DB1.W1246",Word,1,R/W,100,,,,,,,,,,"",
"IER_SBD_002_Error","DB1.W1247",Word,1,R/W,100,,,,,,,,,,"",
"IER_SBD_002_Info","DB1.W1242",Word,1,R/W,100,,,,,,,,,,"",
"IER_SBD_002_PLCLifeSign","DB1.W1244",Word,1,R/W,100,,,,,,,,,,"",
"IER_SBD_002_Status","DB1.W1243",Word,1,R/W,100,,,,,,,,,,"",
"IER_SBD_003_BHSLifeSign","DB1.W238",Word,1,R/W,100,,,,,,,,,,"",
"IER_SBD_003_ConveyorForward","DB1.W235",Word,1,R/W,100,,,,,,,,,,"",
"IER_SBD_003_ConveyorInject","DB1.W231",Word,1,R/W,100,,,,,,,,,,"",
"IER_SBD_003_ConveyorReverse","DB1.W236",Word,1,R/W,100,,,,,,,,,,"",
"IER_SBD_003_Error","DB1.W237",Word,1,R/W,100,,,,,,,,,,"",
"IER_SBD_003_Info","DB1.W232",Word,1,R/W,100,,,,,,,,,,"",
"IER_SBD_003_PLCLifeSign","DB1.W234",Word,1,R/W,100,,,,,,,,,,"",
"IER_SBD_003_Status","DB1.W233",Word,1,R/W,100,,,,,,,,,,"",
"IER_SBD_004_BHSLifeSign","DB1.W248",Word,1,R/W,100,,,,,,,,,,"",
"IER_SBD_004_ConveyorForward","DB1.W245",Word,1,R/W,100,,,,,,,,,,"",
"IER_SBD_004_ConveyorInject","DB1.W241",Word,1,R/W,100,,,,,,,,,,"",
"IER_SBD_004_ConveyorReverse","DB1.W246",Word,1,R/W,100,,,,,,,,,,"",
"IER_SBD_004_Error","DB1.W2247",Word,1,R/W,100,,,,,,,,,,"",
"IER_SBD_004_Info","DB1.W2242",Word,1,R/W,100,,,,,,,,,,"",
"IER_SBD_004_PLCLifeSign","DB1.W244",Word,1,R/W,100,,,,,,,,,,"",
"IER_SBD_004_Status","DB1.W243",Word,1,R/W,100,,,,,,,,,,"",
"IER_SBD_005_BHSLifeSign","DB1.W258",Word,1,R/W,100,,,,,,,,,,"",
"IER_SBD_005_ConveyorForward","DB1.W255",Word,1,R/W,100,,,,,,,,,,"",
"IER_SBD_005_ConveyorInject","DB1.W251",Word,1,R/W,100,,,,,,,,,,"",
"IER_SBD_005_ConveyorReverse","DB1.W256",Word,1,R/W,100,,,,,,,,,,"",
"IER_SBD_005_Error","DB1.W257",Word,1,R/W,100,,,,,,,,,,"",
"IER_SBD_005_Info","DB1.W252",Word,1,R/W,100,,,,,,,,,,"",
"IER_SBD_005_PLCLifeSign","DB1.W254",Word,1,R/W,100,,,,,,,,,,"",
"IER_SBD_005_Status","DB1.W253",Word,1,R/W,100,,,,,,,,,,"",
"IER_SBD_006_BHSLifeSign","DB1.W28",Word,1,R/W,100,,,,,,,,,,"",
"IER_SBD_006_ConveyorForward","DB1.W25",Word,1,R/W,100,,,,,,,,,,"",
"IER_SBD_006_ConveyorInject","DB1.W21",Word,1,R/W,100,,,,,,,,,,"",
"IER_SBD_006_ConveyorReverse","DB1.W26",Word,1,R/W,100,,,,,,,,,,"",
"IER_SBD_006_Error","DB1.W27",Word,1,R/W,100,,,,,,,,,,"",
"IER_SBD_006_Info","DB1.W22",Word,1,R/W,100,,,,,,,,,,"",
"IER_SBD_006_PLCLifeSign","DB1.W24",Word,1,R/W,100,,,,,,,,,,"",
"IER_SBD_006_Status","DB1.W23",Word,1,R/W,100,,,,,,,,,,"",
"IER_SBD_007_BHSLifeSign","DB1.W2178",Word,1,R/W,100,,,,,,,,,,"",
"IER_SBD_007_ConveyorForward","DB1.W21745",Word,1,R/W,100,,,,,,,,,,"",
"IER_SBD_007_ConveyorInject","DB1.W2171",Word,1,R/W,100,,,,,,,,,,"",
"IER_SBD_007_ConveyorReverse","DB1.W2176",Word,1,R/W,100,,,,,,,,,,"",
"IER_SBD_007_Error","DB1.W2177",Word,1,R/W,100,,,,,,,,,,"",
"IER_SBD_007_Info","DB1.W2172",Word,1,R/W,100,,,,,,,,,,"",
"IER_SBD_007_PLCLifeSign","DB1.W2174",Word,1,R/W,100,,,,,,,,,,"",
"IER_SBD_007_Status","DB1.W2173",Word,1,R/W,100,,,,,,,,,,"",
