<?xml version="1.0" encoding="utf-8"?>
<!-- Generator: Adobe Illustrator 12.0.0, SVG Export Plug-In  -->
<!DOCTYPE svg PUBLIC "-//W3C//DTD SVG 1.1//EN" "http://www.w3.org/Graphics/SVG/1.1/DTD/svg11.dtd" [
	<!ENTITY ns_flows "http://ns.adobe.com/Flows/1.0/">
	<!ENTITY ns_svg "http://www.w3.org/2000/svg">
	<!ENTITY ns_xlink "http://www.w3.org/1999/xlink">
]>
<svg  version="1.1" xmlns="&ns_svg;" xmlns:xlink="&ns_xlink;" xmlns:a="http://ns.adobe.com/AdobeSVGViewerExtensions/3.0/"
	 width="600" height="486" viewBox="-0.2202148 -0.7680664 600 486" enable-background="new -0.2202148 -0.7680664 600 486"
	 xml:space="preserve">
<defs>
</defs>
<rect opacity="0" fill="#FFFFFF" width="599.449707" height="485.1879883"/>
<path fill="#092561" d="M58.5761719,414.0219727h9.5107422l4.6279297,28.3369141h-7.6357422l-0.7714844-6.0527344H53.296875
	l-3.3691406,6.0527344h-8.2060547L58.5761719,414.0219727z M62.3564453,419.8549805h-0.0800781l-6.0126953,11.0839844h7.3125
	L62.3564453,419.8549805z"/>
<path fill="#092561" d="M85.7529297,414.0219727h19.9462891l-1.0986328,5.3398438H92.1298828l-1.2958984,5.8515625h11.8193359
	l-1.1806641,5.3652344H89.6933594l-1.3789063,6.4199219h12.9560547l-1.0976563,5.3603516H79.6621094L85.7529297,414.0219727z
	 M95.6621094,406.1655273h7.5986328v0.8974609l-6.6992188,4.9501953h-4.7978516v-0.4775391L95.6621094,406.1655273z"/>
<path fill="#092561" d="M114.5102539,414.0219727h9.0625c5.4003906,0.0351563,11.8984375,0.1767578,11.8984375,7.2177734
	c0,4.9980469-3.9003906,6.7470703-8.2441406,7.2617188v0.0888672c2.2324219,0.2070313,2.9667969,3.2041016,3.3710938,5.0351563
	l2.03125,8.7333984h-7.5566406l-1.4628906-7.2324219c-0.7304688-3.6962891-0.9707031-3.9755859-4.3828125-3.9755859h-0.8144531
	l-2.2792969,11.2080078h-7.59375L114.5102539,414.0219727z M119.5102539,425.777832h2.5585938
	c3.2890625,0,5.8476563-0.8066406,5.8476563-3.4775391c0-2.0419922-1.2207031-2.8916016-3.4902344-2.9384766h-3.6171875
	L119.5102539,425.777832z"/>
<path fill="#092561" d="M153.9106445,442.8442383c-9.21875,0-12.5898438-5.7216797-12.5898438-11.5292969
	c0-10.7617188,5.6464844-17.796875,16.5742188-17.796875c9.21875,0,12.59375,5.7236328,12.59375,11.5712891
	C170.4887695,435.8168945,164.840332,442.8442383,153.9106445,442.8442383z M157.4086914,419.1157227
	c-5.8496094,0-8.2890625,6.7880859-8.2890625,11.5849609c0,3.5742188,1.3417969,6.5380859,5.2832031,6.5380859
	c5.8496094,0,8.2832031-6.7802734,8.2832031-11.5361328C162.6860352,422.1352539,161.3481445,419.1157227,157.4086914,419.1157227z"
	/>
<path fill="#092561" d="M180.9633789,414.0219727h7.5566406c6.2167969,0,12.4726563,0.640625,12.4726563,7.7802734
	c0,7.0751953-5.7695313,10.6435547-12.5917969,10.6435547h-3.8613281l-2.1171875,9.9130859h-7.5527344L180.9633789,414.0219727z
	 M185.6762695,427.0854492h2.03125c3.0078125,0,5.7304688-1.0595703,5.7304688-4.4316406
	c0-2.7236328-1.8671875-3.2919922-3.9003906-3.2919922h-2.2324219L185.6762695,427.0854492z"/>
<path fill="#092561" d="M218.4594727,442.8442383c-9.2207031,0-12.59375-5.7216797-12.59375-11.5292969
	c0-10.7617188,5.6484375-17.796875,16.5742188-17.796875c9.2167969,0,12.5917969,5.7236328,12.5917969,11.5712891
	C235.0317383,435.8168945,229.3833008,442.8442383,218.4594727,442.8442383z M221.9477539,419.1157227
	c-5.8457031,0-8.28125,6.7880859-8.28125,11.5849609c0,3.5742188,1.3378906,6.5380859,5.2773438,6.5380859
	c5.8496094,0,8.2851563-6.7802734,8.2851563-11.5361328C227.2290039,422.1352539,225.8930664,419.1157227,221.9477539,419.1157227z"
	/>
<path fill="#092561" d="M245.8735352,414.0219727h9.0605469c5.4023438,0.0351563,11.9042969,0.1767578,11.9042969,7.2177734
	c0,4.9980469-3.9042969,6.7470703-8.2460938,7.2617188v0.0888672c2.2324219,0.2070313,2.9609375,3.2041016,3.3730469,5.0351563
	l2.0292969,8.7333984h-7.5585938l-1.4589844-7.2324219c-0.7324219-3.6962891-0.9785156-3.9755859-4.3886719-3.9755859h-0.8125
	l-2.2695313,11.2080078h-7.6015625L245.8735352,414.0219727z M250.8774414,425.777832h2.5566406
	c3.2910156,0,5.8457031-0.8066406,5.8457031-3.4775391c0-2.0419922-1.2167969-2.8916016-3.4921875-2.9384766h-3.6132813
	L250.8774414,425.777832z"/>
<path fill="#092561" d="M280.9614258,419.6196289h-7.0644531l1.2167969-5.5976563h21.8046875l-1.2148438,5.5976563h-7.0664063
	l-4.8320313,22.7392578h-7.6757813L280.9614258,419.6196289z"/>
<path fill="#092561" d="M321.0102539,420.4291992c-1.4609375-0.6835938-3.4550781-1.3134766-6.2558594-1.3134766
	c-3.0097656,0-5.4394531,0.4580078-5.4394531,2.7265625c0,4.015625,11.0058594,2.5195313,11.0058594,11.140625
	c0,7.8300781-7.2695313,9.8613281-13.8535156,9.8613281c-2.921875,0-6.2949219-0.6904297-8.7714844-1.4609375l1.78125-5.7695313
	c1.5078125,0.9736328,4.515625,1.625,6.9902344,1.625c2.359375,0,6.0546875-0.4501953,6.0546875-3.3691406
	c0-4.5537109-11.0078125-2.8398438-11.0078125-10.8417969c0-7.3105469,6.4179688-9.5097656,12.6328125-9.5097656
	c3.4921875,0,6.7773438,0.3701172,8.6933594,1.2705078L321.0102539,420.4291992z"/>
<path fill="#092561" d="M346.0688477,414.0219727h9.8378906c9.0175781,0,14.4609375,3.8056641,14.4609375,11.3623047
	c0,11.8544922-7.4335938,16.9746094-18.0800781,16.9746094h-12.2207031L346.0688477,414.0219727z M348.9204102,436.7475586
	h3.3300781c7.4355469,0,10.3183594-5.5527344,10.3183594-10.84375c0-5.1953125-3.5722656-6.2841797-8.2089844-6.2841797h-1.8613281
	L348.9204102,436.7475586z"/>
<path fill="#092561" d="M381.8208008,414.0219727h19.9394531l-1.0976563,5.3398438h-12.4648438l-1.3007813,5.8515625h11.8164063
	l-1.1738281,5.3652344h-11.78125l-1.3847656,6.4199219h12.9589844l-1.0976563,5.3603516h-20.5058594L381.8208008,414.0219727z"/>
<path fill="#092561" d="M423.4536133,414.0219727h7.5546875c6.2128906,0,12.4746094,0.640625,12.4746094,7.7802734
	c0,7.0751953-5.7734375,10.6435547-12.59375,10.6435547h-3.8632813l-2.1113281,9.9130859h-7.5546875L423.4536133,414.0219727z
	 M428.168457,427.0854492h2.0234375c3.0097656,0,5.7304688-1.0595703,5.7304688-4.4316406
	c0-2.7236328-1.8691406-3.2919922-3.8984375-3.2919922h-2.234375L428.168457,427.0854492z"/>
<path fill="#092561" d="M458.3051758,414.0219727h9.5039063l4.6347656,28.3369141h-7.640625l-0.7695313-6.0527344h-11.0078125
	l-3.3730469,6.0527344h-8.2011719L458.3051758,414.0219727z M462.0864258,419.8549805h-0.0820313l-6.0117188,11.0839844h7.3105469
	L462.0864258,419.8549805z"/>
<path fill="#092561" d="M485.355957,414.0219727h9.0625c5.3984375,0.0351563,11.9023438,0.1767578,11.9023438,7.2177734
	c0,4.9980469-3.9042969,6.7470703-8.2480469,7.2617188v0.0888672c2.2304688,0.2070313,2.9648438,3.2041016,3.3671875,5.0351563
	l2.0371094,8.7333984h-7.5605469l-1.4589844-7.2324219c-0.7324219-3.6962891-0.9785156-3.9755859-4.3867188-3.9755859h-0.8105469
	l-2.28125,11.2080078h-7.5917969L485.355957,414.0219727z M490.3579102,425.777832h2.5585938
	c3.2871094,0,5.84375-0.8066406,5.84375-3.4775391c0-2.0419922-1.2148438-2.8916016-3.4902344-2.9384766h-3.6152344
	L490.3579102,425.777832z"/>
<path fill="#092561" d="M516.7583008,414.0219727h7.6328125l-5.8886719,28.3369141h-7.6347656L516.7583008,414.0219727z"/>
<path fill="#092561" d="M551.2075195,420.4291992c-1.46875-0.6835938-3.4550781-1.3134766-6.2636719-1.3134766
	c-3.0019531,0-5.4375,0.4580078-5.4375,2.7265625c0,4.015625,11.0175781,2.5195313,11.0175781,11.140625
	c0,7.8300781-7.2910156,9.8613281-13.8671875,9.8613281c-2.9140625,0-6.2890625-0.6904297-8.7695313-1.4609375l1.7871094-5.7695313
	c1.5039063,0.9736328,4.5039063,1.625,6.9824219,1.625c2.3554688,0,6.0566406-0.4501953,6.0566406-3.3691406
	c0-4.5537109-11.0117188-2.8398438-11.0117188-10.8417969c0-7.3105469,6.4238281-9.5097656,12.6367188-9.5097656
	c3.4980469,0,6.7890625,0.3701172,8.703125,1.2705078L551.2075195,420.4291992z"/>
<path fill="#092561" d="M456.2758789,358.574707l-93.7402344,0.3964844
	c-6.2617188-17.7685547-11.1054688-35.5498047-14.7988281-53.046875
	c102.0585938-29.4365234,73.8847656-45.2470703,73.8847656-45.2470703h-0.0078125
	c44.5917969-21.4975586,47.046875-32.0717773,37.7441406-42.4887695
	c12.5859375-7.6748047,30.0449219-20.1962891,39.6230469-42.6269531
	c-48.046875,8.3085938-111.265625,34.3076172-158.2597656,78.8237305c-0.625,0.5957031-1.1269531,1.2080078-1.1269531,1.2080078
	c0.0097656-0.1181641,0.1757813-0.9658203,0.0898438-1.8867188c-3.6875-40.9526367-3.4355469-85.6342773-2.5917969-114.2172852
	c10.2871094-33.640625,26.8300781-65.1503906,28.7402344-84.921875
	c0.9863281-10.3476563-6.3183594-14.5136719-11.9511719-12.6943359
	c-12.0761719,3.8632813-20.2167969,26.46875-25.6367188,99.4394531
	c-13.8496094,33.9677734-30.6386719,76.1347656-44.2675781,108.6196289
	c-0.2460938,0.6708984-0.4511719,1.3359375-0.4667969,1.640625c0,0-0.203125-0.6728516-0.640625-1.4316406
	c-44.3574219-76.2416992-108.8925781-109.324707-127.46875-116.487793
	c5.2597656,31.9169922,14.0976563,46.5683594,24.9726563,58.8242188c-5.7636719,2.1279297-8.8867188,5.4404297-9.40625,10.3320313
	c-1.40625,13.5068359,18.1445313,33.1660156,41.4199219,44.8647461c0,0-21.3867188,25.6542969,48.3808594,54.4990234
	c-10.7988281,23.4628906-20.6054688,43.3955078-29.6914063,57.9277344
	c-161.9321289,1.9130859-214.7255859,4.75-214.9677734,4.8007813l11.7290039,15.296875
	c0,0,218.1606445-14.3232422,539.5629883-16.109375l3.3125-5.671875
	C529.8383789,358.4174805,491.7387695,358.4702148,456.2758789,358.574707z M339.715332,110.1542969
	c1.921875-21.515625,7.1445313-48.9365234,11.7402344-61.6757813c1.6660156-4.6191406,5.4355469-3.0585938,6.5195313-1.6230469
	c6.3867188,8.4277344-10.5839844,48.7910156-16.5273438,62.8876953c-0.7382813,1.9980469-1.2519531,3.4697266-1.6992188,5.2949219
	C338.9301758,118.2480469,339.4301758,113.2939453,339.715332,110.1542969z M480.2348633,187.3925781
	c-6.3339844,14.0556641-33.3613281,29.5234375-33.3613281,29.5234375
	c19.5117188,10.3378906-11.6464844,29.7768555-38.8671875,42.8901367
	c14.7753906,6.6601563,10.9414063,18.3847656-61.4609375,40.2294922
	c-2.2441406-11.3183594-4.0253906-22.5292969-5.4238281-33.5048828
	C400.3930664,205.7363281,471.2739258,189.7568359,480.2348633,187.3925781z M316.8442383,189.9287109l-0.0117188,0.0292969
	c1.2382813-3.2041016,3.9960938-10.3066406,7.5488281-19.3720703c1.9628906-5.3242188,2.0175781-6.7822266,2.7382813-7.4707031
	c-0.2382813,1.3886719-0.6914063,5-0.7929688,7.515625c-0.0546875,1.5283203-0.1191406,3.8730469-0.1875,5.4794922
	c-1.0078125,48.2724609,3.4824219,92.6987305,9.3261719,127.3969727l0.0097656,0.0234375
	c-13.7890625,4.5136719-24.9824219,8.9160156-34.1230469,13.2333984
	c-7.4550781-5.6806641-17.3085938-11.7333984-30.3222656-18.2451172
	C285.699707,265.065918,306.621582,216.109375,316.8442383,189.9287109z M225.5083008,248.1938477
	c-16.3007813-9.1831055-43.3046875-33.9819336-42.15625-46.9750977c0.6953125-7.75,12.1269531-7.3720703,12.1269531-7.3720703
	c-7.2539063-5.7441406-22.4707031-22.5097656-26.1386719-44.6513672
	c53.3769531,25.4755859,95.6992188,88.7685547,109.0566406,113.128418
	c-4.8828125,11.4042969-9.6894531,22.3974609-14.3925781,32.7685547
	C199.8500977,266.487793,225.5083008,248.1938477,225.5083008,248.1938477z M242.3930664,359.9711914
	c9.3066406-18.8115234,19.7597656-41.3251953,25.6035156-54.5546875
	c10.6328125,5.0507813,19.0683594,10.1611328,25.7421875,15.1767578
	c-25.46875,13.6582031-31.3691406,26.5097656-35.2558594,39.2041016
	C253.0024414,359.8530273,247.6547852,359.9116211,242.3930664,359.9711914z M270.1430664,359.6821289
	c3.6582031-14.5869141,14.1542969-25.3203125,29.5957031-34.2089844
	c15.6054688,13.8115234,18.5136719,26.3330078,18.4902344,33.7900391
	C301.3598633,359.3930664,285.3364258,359.5297852,270.1430664,359.6821289z M324.559082,359.2133789
	c-0.1230469-11.8408203-1.7558594-23.7070313-17.3046875-37.6132813l-0.0820313-0.0664063
	c8.6503906-4.2861328,18.53125-8.1630859,29.3632813-11.8896484c3.7324219,20.8525391,7.8964844,37.7900391,11.4746094,49.4101563
	C340.0239258,359.1049805,332.2055664,359.1606445,324.559082,359.2133789z"/>
<path fill="#FF6600" d="M393.4594727,143.4345703c-19.7792969,0.2001953-33.9296875,7.6748047-33.9296875,7.6748047
	l3.1601563,1.5517578c10.1621094-4.9169922,19.7226563-5.1806641,30.1445313-5.4052734
	c-10.6660156,7.9267578-19.7558594,16.5498047-31.5800781,28.8847656l1.2226563,1.2529297c0,0,4.1210938-0.4609375,5.125-1.2529297
	c0.328125-0.2597656,17.9140625-17.7402344,26.3847656-24.421875l0.0097656,0.296875
	c-2.3554688,14.3525391-3.7089844,30.8105469-2.8515625,36.3945313l4.6347656-4.0283203
	c0.015625-0.1533203,2.2089844-15.1728516,5.1601563-31.9921875c4.4257813,5.5878906,10.6035156,14.7050781,13.5625,23.4121094
	c0.3105469,0.8242188,0.4433594-0.2480469,4.109375-1.5205078c2.2871094-0.7919922,3.2578125-1.2392578,2.9550781-2.21875
	c-3.0644531-8.9335938-8.6445313-16.8583984-14.0703125-23.5869141c6.1074219,1.1806641,12.3613281,2.8359375,18.265625,4.9033203
	c2.1933594,0.7773438,4.9199219-1.8779297,5.9882813-1.8427734c0,0,0,0-0.0058594-0.0058594l0.5957031-1.640625
	c-9.0039063-3.2314453-18.2402344-5.2373047-27.5429688-6.0517578l-0.0292969-0.0332031
	c11.5039063-8.1064453,25.5351563-15.1904297,30.4921875-17.3720703c1.8515625-0.8066406,1.6035156-2.3369141-0.3222656-2.1162109
	c-4.1640625,0.4970703-19.7949219,7.8085938-32.0136719,15.9726563c2.6347656-15.0683594,6.9257813-27.3144531,7.4726563-28.8203125
	l0.0234375-1.4287109l-7.8554688,1.6621094c0,0-2.8652344,10.9384766-5.5683594,24.3642578
	c-6.1269531-7.0810547-12.484375-13.8769531-18.9296875-20.3027344c0,0-1.7441406,0.6376953-3.2539063,1.0605469
	c-1.3652344,0.3701172-3.9804688,2.0888672-3.9804688,2.0888672
	C377.6821289,125.4667969,391.8344727,141.4638672,393.4594727,143.4345703z"/>
</svg>
